<?xml version="1.0" encoding="utf-8"?>
<!-- Generator: Adobe Illustrator 17.0.0, SVG Export Plug-In . SVG Version: 6.00 Build 0)  -->
<!DOCTYPE svg PUBLIC "-//W3C//DTD SVG 1.1//EN" "http://www.w3.org/Graphics/SVG/1.1/DTD/svg11.dtd">
<svg version="1.1" id="Layer_1" xmlns="http://www.w3.org/2000/svg" xmlns:xlink="http://www.w3.org/1999/xlink" x="0px" y="0px"
	 width="100px" height="100px" viewBox="0 0 100 100" enable-background="new 0 0 100 100" xml:space="preserve">
<path id="Twitter_3_" fill="#FFFFFF" d="M-196.575-306.985c-3.591,2.179-7.56,3.764-11.799,4.614
	c-3.379-3.699-8.208-6.009-13.553-6.009c-10.248,0-18.562,8.526-18.562,19.04c0,1.493,0.159,2.942,0.478,4.336
	c-15.433-0.795-29.113-8.368-38.277-19.901c-1.599,2.822-2.513,6.096-2.513,9.583c0,6.603,3.278,12.432,8.261,15.848
	c-3.039-0.093-5.908-0.959-8.415-2.375v0.234c0,9.229,6.402,16.927,14.902,18.67c-1.557,0.447-3.198,0.67-4.893,0.67
	c-1.195,0-2.364-0.114-3.496-0.338c2.364,7.562,9.217,13.069,17.346,13.216c-6.354,5.11-14.365,8.156-23.062,8.156
	c-1.498,0-2.98-0.087-4.431-0.262c8.218,5.394,17.983,8.548,28.465,8.548c34.16,0,52.834-29.01,52.834-54.174
	c0-0.828-0.016-1.656-0.048-2.468c3.628-2.686,6.779-6.036,9.26-9.855c-3.326,1.514-6.906,2.539-10.662,2.996
	C-200.905-298.808-197.961-302.539-196.575-306.985z"/>
<g id="LinkedIn_3_">
	<rect x="-389.659" y="-285.2" fill="#FFFFFF" width="17.376" height="55.056"/>
	<path fill="#FFFFFF" d="M-324.81-285.729c-9.954,0-16.191,5.392-17.345,9.17v-8.64h-19.52c0.252,4.588,0,55.056,0,55.056h19.52
		v-29.793c0-1.656-0.079-3.311,0.425-4.499c1.342-3.311,4.225-6.746,9.409-6.746c6.777,0,9.859,5.091,9.859,12.548v28.49h19.703
		v-30.613C-302.759-277.81-312.461-285.729-324.81-285.729z"/>
	<path fill="#FFFFFF" d="M-381.294-311.189c-6.416,0-10.614,4.121-10.614,9.559c0,5.335,4.078,9.544,10.368,9.544h0.126
		c6.531,0,10.599-4.224,10.599-9.559C-370.941-307.079-374.883-311.189-381.294-311.189z"/>
</g>
<path id="Facebook_2_" fill="#FFFFFF" d="M-296.308-116.538c0,2.704-2.192,4.897-4.896,4.897h-22.607v-34.356h11.532l1.727-13.389
	h-13.258v-8.548c0-3.876,1.076-6.518,6.635-6.518l7.09-0.003v-11.975c-1.226-0.163-5.435-0.528-10.331-0.528
	c-10.222,0-17.221,6.239-17.221,17.698v9.874H-349.2v13.389h11.561v34.356h-42.49c-2.705,0-4.897-2.193-4.897-4.897v-78.923
	c0-2.705,2.192-4.897,4.897-4.897h78.924c2.704,0,4.896,2.192,4.896,4.897L-296.308-116.538L-296.308-116.538z"/>
<circle fill="#FFFFFF" cx="-458" cy="-156" r="38.333"/>
<g id="USDkZa.tif">
	<g>
		<path fill="#FFFFFF" d="M2.82,67.377c0-0.423,0-0.734,0-1.044c-0.001-4.286-0.007-8.571-0.003-12.857
			c0.003-2.711,1.444-4.166,4.13-4.166c28.801,0,57.602,0.001,86.403,0.005c2.168,0,3.768,1.334,3.809,3.487
			c0.091,4.756,0.027,9.515,0.022,14.272c0,0.087-0.061,0.174-0.109,0.303C65.703,67.377,34.329,67.377,2.82,67.377z"/>
		<path fill="#FFFFFF" d="M91.762,45.607c-2.494,0-4.874,0-7.056,0c-0.494-1.333-0.777-2.661-1.437-3.763
			c-1.399-2.333-3.585-3.448-6.324-3.445c-4.442,0.005-8.885,0.004-13.327,0.005c-1.26,0-2.526,0.08-3.78-0.014
			c-4.271-0.321-7.848,2.558-8.217,7.207c-1.086,0-2.178,0-3.337,0c-0.092-0.524-0.156-1.079-0.289-1.617
			c-0.791-3.223-3.493-5.509-6.791-5.543c-6.174-0.064-12.35-0.078-18.525-0.007c-3.862,0.044-6.719,2.779-7.135,6.59
			c-0.02,0.182-0.059,0.362-0.105,0.638c-0.464,0-0.897,0-1.329,0c-1.913,0-3.826,0-5.793,0c-0.022-0.377-0.051-0.652-0.051-0.927
			c-0.003-5.387,0.01-10.775-0.017-16.162c-0.003-0.633,0.198-0.937,0.764-1.204c9.35-4.418,19.143-7.279,29.412-8.543
			c7.383-0.909,14.767-0.964,22.151-0.135c10.658,1.197,20.839,4.103,30.512,8.75c0.294,0.141,0.644,0.562,0.646,0.855
			C91.772,34.022,91.762,39.755,91.762,45.607z"/>
		<path fill="#FFFFFF" d="M89.909,74.715c0,2.483,0,4.803,0,7.186c-2.397,0-4.713,0-7.148,0c0-2.342,0-4.685,0-7.11
			c-21.864,0-43.609,0-65.435,0c0,2.368,0,4.69,0,7.093c-2.417,0-4.755,0-7.209,0c0-2.357,0-4.702,0-7.176
			c-1.739,0-3.367-0.003-4.996,0.001c-2.311,0.006-2.266,0.007-2.329-2.426c-0.025-0.951,0.234-1.216,1.203-1.215
			c30.661,0.028,61.322,0.026,91.984,0.028c1.226,0,1.226,0.003,1.228,1.234c0.005,2.39,0.005,2.389-2.355,2.387
			C93.251,74.714,91.649,74.715,89.909,74.715z"/>
	</g>
</g>
<g>
	<path fill="#231F20" d="M-58.208-133.364c0.003,0.019,0.006,0.038,0.009,0.058h84.683c0.003-0.019,0.006-0.038,0.009-0.058h1.187
		c1.374,0,2.488-1.114,2.488-2.488s-1.114-2.488-2.488-2.488h-72.114v-11.553v-11.058c0-3.872,3.139-7.011,7.011-7.011
		c2.406,0,4.513,1.224,5.775,3.072l-1.258,5.881c1.195,1.195,3.133,1.195,4.328,0l5.14-5.14c1.195-1.195,1.195-3.133,0-4.328
		l-6.169,1.319c-1.821-2.315-4.641-3.804-7.815-3.804c-5.496,0-9.952,4.456-9.952,9.952v22.669h-12.302
		c-1.374,0-2.488,1.114-2.488,2.488s1.114,2.488,2.488,2.488L-58.208-133.364L-58.208-133.364z"/>
	<path fill="#231F20" d="M25.83-129.593h-83.376c2.659,12.499,9.435,21.548,17.488,22.18c-1.394,1.221-2.789,2.87-2.789,3.727
		c0,1.462,0.964,2.647,2.153,2.647h2.333c1.189,0,2.153-1.185,2.153-2.647c0-0.849,0.716-2.474,1.086-3.691H3.4
		c0.37,1.217,1.086,2.843,1.086,3.691c0,1.462,0.964,2.647,2.153,2.647h2.333c1.189,0,2.153-1.185,2.153-2.647
		c0-0.857-1.394-2.506-2.788-3.727C16.393-108.042,23.171-117.091,25.83-129.593z"/>
</g>
</svg>
