<?xml version="1.0" encoding="utf-8"?>
<!-- Generator: Adobe Illustrator 17.0.0, SVG Export Plug-In . SVG Version: 6.00 Build 0)  -->
<!DOCTYPE svg PUBLIC "-//W3C//DTD SVG 1.1//EN" "http://www.w3.org/Graphics/SVG/1.1/DTD/svg11.dtd">
<svg version="1.1" id="Layer_1" xmlns="http://www.w3.org/2000/svg" xmlns:xlink="http://www.w3.org/1999/xlink" x="0px" y="0px"
	 width="350px" height="200px" viewBox="0 0 350 200" style="enable-background:new 0 0 350 200;" xml:space="preserve">
<style type="text/css">
	.st0{fill:#FFFFFF;}
	.st1{enable-background:new    ;}
</style>
<g>
	<g>
		<g>
			<polygon class="st0" points="288.935,76.966 238.557,17.669 165.462,4.436 227.083,76.966 			"/>
		</g>
		<g>
			<polygon class="st0" points="109.321,33.84 103.306,26.76 60.296,76.966 72.376,76.966 			"/>
		</g>
		<polygon class="st0" points="159.76,34.084 151.166,32.528 167.993,12.885 161.979,5.806 140.708,30.635 106.423,24.428 
			151.058,76.966 196.191,76.966 		"/>
	</g>
	<g>
		<path class="st0" d="M42.199,160.004v-0.639c1.663-0.077,3.056-0.425,4.178-1.044c1.122-0.618,1.876-1.335,2.263-2.147
			c0.232-0.502,0.406-1.131,0.522-1.886c0.116-0.754,0.193-1.518,0.232-2.292c0.077-2.554,0.116-4.99,0.116-7.312s0-4.72,0-7.195
			v-16.422c-1.277,2.863-2.447,5.493-3.511,7.892c-1.064,2.399-2.118,4.739-3.163,7.021c-1.044,2.283-2.099,4.613-3.163,6.992
			c-1.064,2.379-2.234,5-3.511,7.863c-0.194,0.387-0.464,0.996-0.812,1.827c-0.348,0.833-0.696,1.684-1.044,2.554
			s-0.678,1.664-0.987,2.379c-0.31,0.717-0.503,1.189-0.58,1.422h-0.348c-1.239-2.862-2.466-5.706-3.685-8.53
			c-1.218-2.823-2.408-5.542-3.568-8.153c-1.161-2.61-2.244-5.057-3.25-7.34c-1.007-2.282-1.915-4.313-2.728-6.093
			s-1.479-3.269-2.002-4.469c-0.522-1.198-0.88-2.011-1.073-2.437c0,2.553-0.01,4.807-0.029,6.76
			c-0.02,1.954-0.039,3.888-0.058,5.803c-0.02,1.915-0.029,3.937-0.029,6.064s0,4.604,0,7.427c0,1.819,0.058,3.395,0.174,4.729
			c0.116,1.335,0.406,2.457,0.871,3.366s1.169,1.624,2.118,2.146c0.947,0.522,2.253,0.899,3.917,1.132v0.58H7.904v-0.58
			c1.354-0.271,2.456-0.668,3.308-1.189c0.851-0.522,1.528-1.248,2.031-2.177c0.502-0.928,0.871-2.079,1.103-3.452
			c0.232-1.373,0.367-3.047,0.406-5.02c0.077-1.663,0.135-3.627,0.174-5.89c0.038-2.264,0.058-4.69,0.058-7.282
			c0-1.122,0-2.069,0-2.844c0-0.773,0-1.509,0-2.205c0-0.734,0-1.488,0-2.263c0-0.773-0.02-1.722-0.058-2.844
			c-0.039-1.083-0.271-1.963-0.696-2.641c-0.426-0.676-0.929-1.208-1.509-1.596c-0.581-0.386-1.2-0.667-1.857-0.841
			c-0.658-0.174-1.219-0.3-1.683-0.377v-0.581h12.36l13.869,31.567c1.702-3.675,3.365-7.33,4.99-10.967
			c1.625-3.636,3.084-6.925,4.381-9.865c1.296-2.939,2.359-5.387,3.192-7.341c0.831-1.952,1.305-3.084,1.421-3.395h12.36v0.581
			c-1.586,0.038-2.795,0.367-3.626,0.986c-0.833,0.619-1.403,1.354-1.712,2.205c-0.232,0.658-0.387,1.683-0.464,3.075
			c-0.078,1.393-0.136,2.767-0.174,4.12c-0.039,1.856-0.058,3.655-0.058,5.396c0,1.74,0,3.502,0,5.28c0,2.089,0,4.178,0,6.268
			c0,2.051,0.019,4.217,0.058,6.499c0,0.735,0.048,1.479,0.145,2.233c0.096,0.755,0.261,1.345,0.493,1.771
			c0.038,0.077,0.183,0.261,0.435,0.551c0.251,0.29,0.609,0.601,1.074,0.929c0.464,0.329,1.044,0.619,1.741,0.87
			c0.696,0.252,1.509,0.397,2.437,0.436v0.58H42.199z"/>
		<path class="st0" d="M72.605,160.004v-0.58c0.966-0.154,1.866-0.406,2.698-0.755c0.832-0.348,1.538-0.851,2.118-1.509
			c0.193-0.231,0.338-0.56,0.436-0.986c0.096-0.425,0.174-0.928,0.232-1.509c0.058-0.58,0.096-1.189,0.116-1.827
			c0.019-0.639,0.029-1.267,0.029-1.887c0-0.541,0.009-1.276,0.029-2.205c0.019-0.928,0.038-1.943,0.058-3.046
			c0.019-1.103,0.029-2.234,0.029-3.395c0-1.199,0-2.321,0-3.366v-11.315c0-0.696,0-1.393,0-2.089s-0.029-1.344-0.087-1.943
			c-0.058-0.6-0.145-1.141-0.261-1.625c-0.116-0.483-0.29-0.86-0.522-1.132c-0.542-0.657-1.209-1.131-2.002-1.422
			c-0.793-0.29-1.693-0.493-2.698-0.608v-0.581h17.351v0.581c-0.812,0.115-1.683,0.329-2.611,0.638
			c-0.929,0.311-1.645,0.929-2.147,1.857c-0.348,0.658-0.532,1.489-0.551,2.495c-0.02,1.006-0.049,1.953-0.087,2.843
			c0,0.968-0.01,1.925-0.029,2.873c-0.02,0.948-0.029,1.905-0.029,2.872c0,0.968,0,1.973,0,3.018c0,1.006,0,2.108,0,3.308v13.114
			c0,1.122,0.019,2.205,0.058,3.249c0.038,1.045,0.212,1.78,0.522,2.205c0.464,0.658,1.199,1.161,2.205,1.509
			c1.005,0.349,1.915,0.562,2.727,0.639v0.58H72.605z"/>
		<path class="st0" d="M138.291,160.004h-37.253v-0.58c0.966-0.154,1.924-0.406,2.872-0.755c0.948-0.348,1.692-0.831,2.234-1.45
			c0.193-0.232,0.357-0.57,0.493-1.016c0.135-0.444,0.241-0.957,0.319-1.538c0.077-0.58,0.145-1.189,0.203-1.827
			c0.058-0.639,0.087-1.267,0.087-1.887c0-0.541,0.009-1.276,0.029-2.205c0.019-0.928,0.038-1.943,0.058-3.046
			c0.019-1.103,0.029-2.234,0.029-3.395c0-1.199,0-2.321,0-3.366v-11.257c0-0.696,0-1.373,0-2.031c0-0.696-0.029-1.344-0.087-1.943
			s-0.145-1.132-0.261-1.596c-0.116-0.465-0.29-0.832-0.522-1.103c-0.542-0.658-1.268-1.161-2.176-1.509
			c-0.909-0.349-1.867-0.581-2.873-0.696v-0.581h18.511v0.581c-0.503,0.077-1.103,0.193-1.799,0.348
			c-0.696,0.155-1.355,0.406-1.973,0.755c-0.619,0.348-1.151,0.841-1.596,1.479c-0.445,0.638-0.688,1.479-0.726,2.524
			c-0.039,1.354-0.068,2.592-0.087,3.713c-0.02,1.123-0.039,2.226-0.058,3.308c-0.02,1.084-0.029,2.205-0.029,3.366
			c0,1.16,0,2.457,0,3.888c0,1.315,0,2.515,0,3.598c0,1.045,0,2.07,0,3.075c0,1.007,0.009,2.041,0.029,3.104
			c0.019,1.064,0.029,2.254,0.029,3.569c0.038,1.238,0.087,2.418,0.145,3.539c0.058,1.123,0.261,1.954,0.609,2.495
			c0.154,0.194,0.464,0.388,0.928,0.581s1.024,0.357,1.683,0.493c0.658,0.136,1.373,0.252,2.147,0.348
			c0.773,0.097,1.546,0.146,2.321,0.146c0.309,0,0.803-0.01,1.48-0.029c0.676-0.02,1.421-0.058,2.234-0.116
			c0.812-0.058,1.644-0.145,2.495-0.261c0.851-0.116,1.605-0.271,2.263-0.465c1.547-0.425,2.833-0.986,3.859-1.683
			c1.024-0.696,1.905-1.499,2.64-2.408c0.734-0.908,1.354-1.895,1.857-2.959c0.502-1.063,0.986-2.176,1.451-3.337l0.58,0.174
			L138.291,160.004z"/>
		<path class="st0" d="M197.905,119.616c-0.677,0.427-1.073,0.717-1.189,0.871c-0.116,0.116-0.29,0.31-0.522,0.58
			c-0.232,0.271-0.503,0.648-0.812,1.132s-0.638,1.103-0.986,1.856c-0.348,0.755-0.716,1.692-1.103,2.814
			c-0.619,1.896-1.335,3.995-2.146,6.296c-0.812,2.302-1.635,4.671-2.467,7.108s-1.674,4.885-2.524,7.341
			c-0.851,2.457-1.645,4.787-2.379,6.992l-2.437,5.57h-0.581c-1.044-2.785-2.021-5.454-2.93-8.008
			c-0.91-2.553-1.78-5.009-2.611-7.369c-0.833-2.359-1.635-4.651-2.408-6.876c-0.774-2.225-1.567-4.42-2.379-6.587
			c-0.62,1.78-1.277,3.647-1.973,5.6c-0.696,1.954-1.393,3.938-2.089,5.948c-0.696,2.012-1.393,3.995-2.089,5.948
			c-0.696,1.953-1.374,3.84-2.031,5.657l-2.553,5.687h-0.696c-1.2-3.133-2.331-6.111-3.395-8.936
			c-1.064-2.824-2.089-5.542-3.076-8.153s-1.944-5.145-2.872-7.602c-0.929-2.456-1.857-4.903-2.786-7.341
			c-0.271-0.734-0.513-1.372-0.725-1.915c-0.213-0.541-0.406-1.044-0.581-1.509c-0.174-0.464-0.358-0.908-0.551-1.334
			c-0.194-0.426-0.406-0.871-0.638-1.335c-0.116-0.232-0.281-0.522-0.493-0.87c-0.213-0.349-0.513-0.687-0.899-1.016
			c-0.387-0.328-0.852-0.618-1.393-0.87c-0.542-0.252-1.238-0.396-2.089-0.436v-0.639h16.364v0.581
			c-0.194,0-0.522,0.038-0.987,0.115c-0.464,0.078-0.948,0.214-1.451,0.406c-0.503,0.194-0.938,0.484-1.306,0.871
			c-0.368,0.387-0.551,0.909-0.551,1.566c0,0.349,0.203,1.151,0.609,2.408c0.406,1.258,0.938,2.785,1.596,4.584
			c0.658,1.799,1.383,3.763,2.176,5.89c0.792,2.128,1.586,4.228,2.379,6.296c0.792,2.07,1.538,4.004,2.234,5.803
			s1.256,3.279,1.683,4.439c0.116-0.309,0.406-1.111,0.871-2.408c0.464-1.296,1.044-2.92,1.741-4.874
			c0.696-1.953,1.47-4.158,2.321-6.615c0.851-2.456,1.702-5.02,2.553-7.688c-0.58-1.547-1.102-2.911-1.566-4.091
			s-0.968-2.331-1.509-3.453c-0.155-0.31-0.358-0.639-0.609-0.986c-0.252-0.349-0.6-0.687-1.044-1.016
			c-0.445-0.328-0.997-0.6-1.654-0.812c-0.658-0.212-1.451-0.338-2.379-0.377v-0.639h18.163v0.581
			c-0.232,0.038-0.648,0.097-1.248,0.174c-0.601,0.078-1.199,0.223-1.798,0.435c-0.601,0.214-1.142,0.514-1.625,0.899
			c-0.484,0.388-0.726,0.871-0.726,1.451c0,0.232,0.212,1.016,0.639,2.351c0.425,1.334,0.966,2.959,1.625,4.874
			c0.658,1.915,1.393,3.995,2.205,6.238s1.586,4.4,2.321,6.47c0.734,2.07,1.401,3.927,2.002,5.57
			c0.599,1.645,1.034,2.835,1.306,3.569c0.115-0.271,0.318-0.842,0.609-1.712c0.29-0.871,0.657-1.935,1.103-3.191
			c0.443-1.257,0.928-2.66,1.45-4.207s1.045-3.124,1.566-4.729c0.522-1.605,1.045-3.211,1.567-4.816
			c0.522-1.604,0.995-3.104,1.422-4.497c0.541-1.779,0.85-3.075,0.928-3.888c0.077-0.812,0.116-1.412,0.116-1.799
			c0-0.581-0.174-1.054-0.522-1.422c-0.348-0.367-0.774-0.677-1.276-0.929c-0.503-0.251-1.044-0.444-1.625-0.58
			c-0.58-0.135-1.103-0.223-1.566-0.261v-0.581h12.766v0.581C199.404,118.92,198.582,119.191,197.905,119.616z"/>
		<path class="st0" d="M222.372,160.004v-0.58c0.115,0,0.396-0.038,0.841-0.116c0.444-0.077,0.909-0.212,1.393-0.406
			c0.483-0.193,0.909-0.464,1.277-0.812c0.367-0.348,0.551-0.792,0.551-1.335c0-0.348-0.106-0.918-0.319-1.711
			s-0.513-1.761-0.899-2.901s-0.832-2.408-1.334-3.801c-0.504-1.394-1.045-2.844-1.625-4.353H206.82
			c-0.58,1.471-1.142,2.872-1.683,4.207c-0.542,1.335-1.084,2.68-1.625,4.033c-0.812,2.089-1.219,3.56-1.219,4.41
			c0,0.503,0.154,0.919,0.465,1.247c0.309,0.329,0.705,0.601,1.189,0.812c0.483,0.213,1.005,0.368,1.566,0.464
			c0.561,0.098,1.093,0.185,1.596,0.262v0.58H194.75v-0.639c1.006-0.115,1.865-0.386,2.582-0.812
			c0.715-0.425,1.131-0.715,1.247-0.87c0.271-0.27,0.716-0.908,1.335-1.915c0.618-1.005,1.373-2.495,2.263-4.468
			c0.812-1.818,1.722-3.888,2.728-6.209s2.04-4.709,3.104-7.166c1.063-2.457,2.118-4.933,3.163-7.428
			c1.044-2.495,2.03-4.825,2.959-6.992l-0.58-1.277c0.696-0.309,1.324-0.676,1.886-1.103c0.561-0.425,1.054-0.87,1.479-1.334
			c0.426-0.465,0.783-0.909,1.073-1.335c0.291-0.425,0.513-0.773,0.668-1.045h0.464c1.199,3.212,2.34,6.259,3.424,9.14
			c1.082,2.883,2.118,5.658,3.104,8.327s1.943,5.252,2.872,7.747s1.857,4.961,2.785,7.398c0.426,1.199,0.822,2.195,1.189,2.988
			c0.368,0.793,0.784,1.692,1.248,2.698c0.077,0.155,0.251,0.426,0.522,0.812c0.27,0.387,0.628,0.783,1.073,1.189
			c0.444,0.406,0.996,0.765,1.654,1.073c0.657,0.311,1.431,0.484,2.32,0.522v0.696H222.372z M214.77,124.839
			c-0.232,0.504-0.571,1.297-1.016,2.379c-0.445,1.084-0.997,2.399-1.654,3.946c-0.658,1.548-1.384,3.299-2.176,5.252
			c-0.793,1.953-1.654,4.071-2.582,6.354h14.448c-0.658-1.74-1.325-3.481-2.002-5.223c-0.677-1.74-1.334-3.413-1.973-5.02
			c-0.638-1.604-1.219-3.075-1.74-4.409C215.553,126.783,215.118,125.69,214.77,124.839z"/>
		<path class="st0" d="M277.788,160.004c-0.349-0.349-0.601-0.609-0.755-0.783s-0.329-0.377-0.521-0.609
			c-0.194-0.232-0.436-0.57-0.726-1.016c-0.29-0.444-0.745-1.111-1.364-2.002c-0.734-1.083-1.383-2.06-1.943-2.931
			c-0.562-0.87-1.132-1.73-1.712-2.582c-0.58-0.851-1.21-1.712-1.886-2.582c-0.678-0.87-1.479-1.847-2.408-2.931
			c-0.774-0.89-1.616-1.721-2.524-2.495c-0.909-0.773-1.867-1.257-2.872-1.45c-0.735-0.154-1.297-0.232-1.683-0.232
			c-0.349,0-0.794-0.02-1.335-0.059c0,2.516,0,4.701,0,6.558s0.019,3.424,0.058,4.7c0.038,1.238,0.077,2.302,0.116,3.191
			c0.038,0.891,0.251,1.625,0.639,2.205c0.309,0.503,0.908,1.016,1.799,1.538c0.89,0.522,2.127,0.822,3.714,0.899v0.58h-18.569
			v-0.58c0.967-0.154,1.896-0.387,2.785-0.696s1.586-0.773,2.09-1.393c0.192-0.232,0.348-0.581,0.464-1.045s0.203-0.986,0.261-1.566
			c0.059-0.58,0.106-1.199,0.146-1.857c0.038-0.657,0.058-1.295,0.058-1.915c0-0.541,0.01-1.276,0.029-2.205
			c0.019-0.928,0.038-1.943,0.058-3.046s0.029-2.234,0.029-3.395c0-1.199,0-2.321,0-3.366v-11.315c0-0.696-0.01-1.401-0.029-2.117
			s-0.058-1.393-0.115-2.031c-0.059-0.639-0.155-1.219-0.291-1.741s-0.318-0.899-0.551-1.131c-0.58-0.619-1.229-1.035-1.944-1.248
			c-0.716-0.212-1.596-0.396-2.64-0.551v-0.581c0.309,0,1.103,0,2.379,0c1.314,0,2.805-0.009,4.468-0.028s3.327-0.029,4.991-0.029
			c1.662,0,3.017,0,4.062,0c2.591,0,4.894,0.078,6.905,0.232c2.011,0.154,3.849,0.677,5.513,1.566
			c1.702,0.891,3.075,2.099,4.12,3.627c1.044,1.528,1.566,3.452,1.566,5.773c0,1.432-0.261,2.719-0.783,3.859
			s-1.219,2.146-2.089,3.017c-0.871,0.871-1.886,1.616-3.047,2.234c-1.16,0.619-2.379,1.142-3.655,1.566v0.175
			c0.657,0.348,1.295,0.851,1.915,1.509c0.618,0.658,1.218,1.393,1.799,2.205c1.005,1.47,2.098,3.056,3.278,4.758
			c1.18,1.703,2.234,3.212,3.162,4.526c1.431,2.012,2.823,3.481,4.179,4.41c1.354,0.928,2.939,1.528,4.758,1.799v0.58H277.788z
			 M272.042,123.853c-0.967-1.509-2.379-2.707-4.235-3.598c-0.929-0.425-1.906-0.734-2.931-0.929c-1.025-0.192-2.1-0.29-3.221-0.29
			c-0.812,0-1.471,0.021-1.973,0.059c-0.504,0.039-0.891,0.077-1.161,0.115c-0.039,0.232-0.078,0.436-0.116,0.609
			c-0.038,0.175-0.067,0.397-0.087,0.668s-0.039,0.648-0.058,1.131c-0.021,0.484-0.049,1.171-0.087,2.061
			c-0.039,1.354-0.068,2.882-0.087,4.584c-0.021,1.703-0.029,3.347-0.029,4.933c0,1.587,0,2.979,0,4.178c0,1.16,0,1.896,0,2.205
			c1.586,0,3.065-0.067,4.439-0.203c1.372-0.135,2.698-0.415,3.975-0.842c1.237-0.386,2.301-0.908,3.191-1.566
			c0.89-0.657,1.615-1.401,2.176-2.234c0.561-0.831,0.977-1.73,1.248-2.698c0.27-0.966,0.406-1.973,0.406-3.017
			C273.494,127.083,273.009,125.361,272.042,123.853z"/>
		<path class="st0" d="M340.283,146.193c-0.696,2.205-1.645,4.101-2.844,5.687c-1.199,1.587-2.592,2.901-4.178,3.946
			c-1.587,1.044-3.27,1.877-5.048,2.495c-1.78,0.619-3.618,1.055-5.513,1.306c-1.896,0.252-3.734,0.377-5.513,0.377h-21.181v-0.58
			c0.967-0.116,1.905-0.367,2.814-0.755c0.908-0.386,1.596-0.851,2.061-1.393c0.192-0.193,0.338-0.522,0.435-0.986
			s0.184-0.986,0.262-1.566c0.077-0.58,0.135-1.199,0.174-1.857c0.038-0.657,0.058-1.295,0.058-1.915
			c0-0.541,0.01-1.276,0.029-2.205c0.019-0.928,0.038-1.943,0.058-3.046s0.029-2.234,0.029-3.395c0-1.199,0-2.321,0-3.366v-11.315
			c0-0.696,0-1.393,0-2.089s-0.029-1.344-0.087-1.943s-0.146-1.141-0.261-1.625c-0.116-0.483-0.291-0.86-0.522-1.132
			c-0.58-0.696-1.276-1.18-2.089-1.45s-1.722-0.465-2.728-0.58v-0.581c1.625,0,3.965-0.009,7.021-0.028
			c3.056-0.02,6.75-0.029,11.083-0.029c1.237,0,2.476,0,3.714,0c1.276,0,2.553,0.058,3.83,0.174c1.276,0.116,2.553,0.311,3.829,0.58
			c1.277,0.271,2.534,0.678,3.772,1.219c1.625,0.696,3.152,1.587,4.584,2.67c1.431,1.083,2.679,2.369,3.743,3.858
			c1.063,1.489,1.914,3.212,2.553,5.164c0.639,1.954,0.958,4.188,0.958,6.702C341.328,141.435,340.979,143.988,340.283,146.193z
			 M333.145,132.093c-0.696-2.127-1.663-4.052-2.901-5.774c-1.238-1.721-2.708-3.181-4.41-4.381c-1.702-1.198-3.56-1.973-5.57-2.321
			c-0.774-0.153-1.625-0.279-2.554-0.377c-0.928-0.096-2.069-0.145-3.423-0.145c-0.465,0-0.968,0.01-1.509,0.028
			c-0.542,0.021-1.074,0.059-1.596,0.116c-0.522,0.059-1.007,0.107-1.451,0.146c-0.445,0.039-0.803,0.097-1.073,0.174
			c-0.194,1.896-0.311,4.507-0.349,7.834c-0.039,3.327-0.058,7.292-0.058,11.896c0,2.477,0,4.739,0,6.789
			c0,2.012,0.019,3.656,0.058,4.933c0,0.542,0.029,1.132,0.087,1.77c0.059,0.639,0.126,1.258,0.203,1.857s0.203,1.142,0.378,1.624
			c0.174,0.484,0.377,0.842,0.609,1.074c0.773,0.774,1.749,1.268,2.93,1.479c1.18,0.213,2.292,0.319,3.337,0.319
			c0.967,0,1.963-0.049,2.988-0.146c1.024-0.096,1.982-0.28,2.872-0.551c4.179-1.199,7.302-3.53,9.372-6.993
			c2.069-3.461,3.104-7.727,3.104-12.795C334.19,136.406,333.841,134.221,333.145,132.093z"/>
		<g class="st1">
			<path class="st0" d="M66.647,177.011h3.298c0.166,0,0.39,0.007,0.674,0.019s0.591,0.047,0.922,0.105
				c0.331,0.06,0.667,0.154,1.01,0.284s0.65,0.319,0.922,0.567c0.271,0.248,0.496,0.562,0.673,0.939
				c0.178,0.379,0.266,0.84,0.266,1.383c0,0.604-0.104,1.1-0.31,1.49c-0.207,0.39-0.467,0.706-0.78,0.948
				c-0.313,0.242-0.659,0.423-1.037,0.541c-0.378,0.118-0.739,0.201-1.082,0.248l3.652,6.028h-1.33l-3.529-5.957h-2.181v5.957h-1.17
				V177.011z M67.817,182.543H70.3c0.614,0,1.114-0.076,1.498-0.23c0.384-0.153,0.683-0.343,0.896-0.567s0.357-0.467,0.435-0.727
				c0.077-0.26,0.115-0.497,0.115-0.71c0-0.212-0.039-0.448-0.115-0.709c-0.077-0.26-0.222-0.502-0.435-0.727
				s-0.512-0.414-0.896-0.567c-0.384-0.153-0.884-0.23-1.498-0.23h-2.482V182.543z"/>
			<path class="st0" d="M109.147,177.011h7.678v1.064h-6.507v4.468h6.099v1.064h-6.099v4.894h6.791v1.063h-7.961V177.011z"/>
			<path class="st0" d="M155.495,177.011h1.206l5.284,12.554h-1.312l-1.365-3.333h-6.649l-1.418,3.333h-1.223L155.495,177.011z
				 M156.045,178.288l-2.926,6.879h5.763L156.045,178.288z"/>
			<path class="st0" d="M195.779,177.011h1.171v11.49h5.851v1.063h-7.021V177.011z"/>
			<path class="st0" d="M237.783,178.075h-4.29v-1.064h9.752v1.064h-4.291v11.489h-1.171V178.075z"/>
			<path class="st0" d="M279.947,184.156l-4.61-7.146h1.4l3.795,5.958l3.883-5.958h1.312l-4.61,7.146v5.408h-1.17V184.156z"/>
		</g>
	</g>
</g>
</svg>
