<?xml version="1.0" encoding="utf-8"?>
<!-- Generator: Adobe Illustrator 18.1.1, SVG Export Plug-In . SVG Version: 6.00 Build 0)  -->
<svg version="1.1" id="Layer_1" xmlns="http://www.w3.org/2000/svg" xmlns:xlink="http://www.w3.org/1999/xlink" x="0px" y="0px"
	 viewBox="35 -35 100 100" enable-background="new 35 -35 100 100" xml:space="preserve">
<g>
	<path fill="#FFFFFF" d="M118.7,47h-6.3c-1.7,0-3-1.4-3-3V29.8c0-1.6,1.3-3,3-3h6.3c1.7,0,3,1.4,3,3V44
		C121.7,45.6,120.3,47,118.7,47z"/>
	<path fill="#FFFFFF" d="M59.9,47h-6.3c-1.6,0-3-1.4-3-3V29.8c0-1.6,1.4-3,3-3h6.3c1.7,0,3,1.4,3,3V44C62.9,45.6,61.5,47,59.9,47z"
		/>
	<ellipse fill="#FFFFFF" cx="98" cy="10.4" rx="8.4" ry="7.9"/>
	<path fill="#FFFFFF" d="M122,9.7H50.2c-3.2,0-5.8,2.4-5.8,5.4v15.2c0,3,2.6,5.4,5.8,5.4H122c3.2,0,5.8-2.4,5.8-5.4V15.2
		C127.8,12.2,125.2,9.7,122,9.7z M56.7,26.1c-3.1,0-5.6-2.3-5.6-5.2c0-2.9,2.5-5.2,5.6-5.2c3.1,0,5.6,2.3,5.6,5.2
		C62.3,23.7,59.8,26.1,56.7,26.1z M115.5,26.8c-3.1,0-5.6-2.3-5.6-5.2s2.5-5.2,5.6-5.2s5.6,2.3,5.6,5.2S118.6,26.8,115.5,26.8z"/>
	<g>
		<path fill="#FFFFFF" d="M70.7-11.6h30.8l11.8,21.3h6.5l-14-25.3c-0.5-0.9-1.5-1.5-2.6-1.5H69c-1.1,0-2.1,0.6-2.6,1.5l-14,25.3h6.5
			L70.7-11.6z"/>
	</g>
	<ellipse fill="#FFFFFF" cx="52.5" cy="5.8" rx="6.1" ry="3.1"/>
	<ellipse fill="#FFFFFF" cx="119.8" cy="5.8" rx="6.1" ry="3.1"/>
</g>
</svg>
